Day 5: Wrapping Up
…
---
# Small Things to Know

#### String Problem of Country Names

* Example: Different country codes between UNHCR code and ISO3

```
## # A tibble: 94 x 3
##    iso3  unhcr unsd_name          
##    <chr> <chr> <chr>              
##  1 DZA   ALG   Algeria            
##  2 AGO   ANG   Angola             
##  3 ATG   ANT   Antigua and Barbuda
##  4 AUS   AUL   Australia          
##  5 AUT   AUS   Austria            
##  6 BHR   BAH   Bahrain            
##  7 BRB   BAR   Barbados           
##  8 BLZ   BZE   Belize             
##  9 BMU   BER   Bermuda            
## 10 BTN   BHU   Bhutan             
## # ... with 84 more rows
```
…
